{
  "userName": "shaun",
  "firstName": "Shaun",
  "lastName": "The Sheep",
  "age": 18,
  "location": "Amsterdam",
  "gender": "Sheep",
  "email": "shaun@gmail.com",
  "interestedIn": "sheep",
  "creditcard": "1111111111111111",
  "password": "Dikke1",
  "VIP": true,
  "hobbies": "sports",
  "music": "None"
}